Untitled
…
IOU_with_clinical <- IOU_with_cibersort %>% left_join(clinical, by=c("Tumor_Sample_Barcode"="submitter_id"))
IOU_with_clinical %>% group_by(race) %>% dplyr::summarize(mean(IOU, na.rm=TRUE), n=n())

## # A tibble: 5 x 3
##   race                             `mean(IOU, na.rm = TRUE)`     n
##   <chr>                                                <dbl> <int>
## 1 american indian or alaska native                     0.222     1
## 2 asian                                                0.476    58
## 3 black or african american                            0.419   162
## 4 not reported                                         0.416    81
## 5 white                                                0.437   674

IOU_with_clinical %>% group_by(primary_diagnosis) %>% dplyr::summarize(mean(IOU, na.rm=TRUE), n=n())

## # A tibble: 24 x 3
##    primary_diagnosis                           `mean(IOU, na.rm = TR~     n
##    <chr>                                                        <dbl> <int>
##  1 --                                                           0.495    14
##  2 Cribriform carcinoma, NOS                                    0.7       1
##  3 Infiltrating duct and lobular carcinoma                      0.500     3
##  4 Infiltrating duct carcinoma, NOS                             0.460    97
##  5 Infiltrating duct mixed with other types o~                  0.512     5
##  6 Intraductal papillary adenocarcinoma with ~                  0.613     1
##  7 Large cell neuroendocrine carcinoma                          0.570     1
##  8 Lobular carcinoma, NOS                                       0.416    18
##  9 Medullary carcinoma, NOS                                     0.340     2
## 10 Metaplastic carcinoma, NOS                                   0.220     1
## # ... with 14 more rows
…
